56 -56 144 -64 640
56 -8 -32 8 -32 -8 800
16 -16 -80 856
-56 -72 144 -16 -8 -72 576
-40 -8 64 -16 832
120 -40 -8 -40 752
56 -64 40 -48 -80 664
40 -40 -48 -80 752
-32 88 -56 8 -48 -40 672
-56 -48 872
48 -24 40 -72 152 -24 584
48 -16 -64 16 -64 -16 720
64 -64 -8 16 -32 104 -72 576
136 -56 -80 96 -8 576
64 -56 -80 -32 728
-80 80 -56 752
-48 216 -56 16 -8 608
-64 72 -16 -72 736
192 -80 -80 616
136 -8 832
-56 928
-48 -64 16 -40 72 -72 632
-8 144 -16 800
208 -32 736
-56 80 -56 24 -64 64 -40 552
-48 128 -16 776
160 -32 64 -24 -40 632
96 -48 72 -48 696
152 -16 40 -56 696
48 -16 912
16 -40 16 -40 848
40 -80 -48 800
16 -72 40 -72 760
