-64 144 -72 688
-144 -48 -16 -144 608
-160 -144 -56 -32 568
-48 -80 184 -64 -72 -80 -152 256
992
-88 128 -112 640
992
992
64 -48 -112 -16 -96 616
-72 80 -80 736
-120 -112 -104 -64 -160 -32 352
-24 -32 920
-16 -120 840
-112 -72 792
-112 -152 -128 -144 -128 -160 120
40 -128 -120 680
-160 -32 784
-136 -136 704
40 -80 -136 712
-16 8 -160 96 -136 -56 472
